{
  "project_info": {
    "project_number": "229771674730",
    "project_id": "sesion4-f2d39",
    "storage_bucket": "sesion4-f2d39.appspot.com"
  },
  "client": [
    {
      "client_info": {
        "mobilesdk_app_id": "1:229771674730:android:7c9f6eaf3fd5907d817613",
        "android_client_info": {
          "package_name": "com.example.sesion4"
        }
      },
      "oauth_client": [
        {
          "client_id": "229771674730-jnsfbtj9g4d197qmjpgeickgdcv2envb.apps.googleusercontent.com",
          "client_type": 3
        }
      ],
      "api_key": [
        {
          "current_key": "AIzaSyDZ6fBL9pIuOGfymhgZ0hjcnoHjY77opoo"
        }
      ],
      "services": {
        "appinvite_service": {
          "other_platform_oauth_client": [
            {
              "client_id": "229771674730-jnsfbtj9g4d197qmjpgeickgdcv2envb.apps.googleusercontent.com",
              "client_type": 3
            }
          ]
        }
      }
    }
  ],
  "configuration_version": "1"
}