-- Merging decision tree log ---
application
INJECTED from /Users/joyboy/Desktop/Sempiterno/Capacitacion/Flutter/sesion 4/sesion4/android/app/src/main/AndroidManifest.xml:7:4-37:19
MERGED from [:firebase_database] /Users/joyboy/Desktop/Sempiterno/Capacitacion/Flutter/sesion 4/sesion4/build/firebase_database/intermediates/merged_manifest/debug/AndroidManifest.xml:9:5-15:19
MERGED from [:firebase_database] /Users/joyboy/Desktop/Sempiterno/Capacitacion/Flutter/sesion 4/sesion4/build/firebase_database/intermediates/merged_manifest/debug/AndroidManifest.xml:9:5-15:19
MERGED from [:cloud_firestore] /Users/joyboy/Desktop/Sempiterno/Capacitacion/Flutter/sesion 4/sesion4/build/cloud_firestore/intermediates/merged_manifest/debug/AndroidManifest.xml:9:5-15:19
MERGED from [:cloud_firestore] /Users/joyboy/Desktop/Sempiterno/Capacitacion/Flutter/sesion 4/sesion4/build/cloud_firestore/intermediates/merged_manifest/debug/AndroidManifest.xml:9:5-15:19
MERGED from [:firebase_core] /Users/joyboy/Desktop/Sempiterno/Capacitacion/Flutter/sesion 4/sesion4/build/firebase_core/intermediates/merged_manifest/debug/AndroidManifest.xml:9:5-15:19
MERGED from [:firebase_core] /Users/joyboy/Desktop/Sempiterno/Capacitacion/Flutter/sesion 4/sesion4/build/firebase_core/intermediates/merged_manifest/debug/AndroidManifest.xml:9:5-15:19
MERGED from [:image_picker_android] /Users/joyboy/Desktop/Sempiterno/Capacitacion/Flutter/sesion 4/sesion4/build/image_picker_android/intermediates/merged_manifest/debug/AndroidManifest.xml:9:5-19:19
MERGED from [:image_picker_android] /Users/joyboy/Desktop/Sempiterno/Capacitacion/Flutter/sesion 4/sesion4/build/image_picker_android/intermediates/merged_manifest/debug/AndroidManifest.xml:9:5-19:19
MERGED from [:geolocator_android] /Users/joyboy/Desktop/Sempiterno/Capacitacion/Flutter/sesion 4/sesion4/build/geolocator_android/intermediates/merged_manifest/debug/AndroidManifest.xml:11:5-17:19
MERGED from [:geolocator_android] /Users/joyboy/Desktop/Sempiterno/Capacitacion/Flutter/sesion 4/sesion4/build/geolocator_android/intermediates/merged_manifest/debug/AndroidManifest.xml:11:5-17:19
MERGED from [androidx.window:window:1.0.0-beta04] /Users/joyboy/.gradle/caches/transforms-3/36a45b2abb854eca36c578fbec6ed4df/transformed/jetified-window-1.0.0-beta04/AndroidManifest.xml:24:5-31:19
MERGED from [androidx.window:window:1.0.0-beta04] /Users/joyboy/.gradle/caches/transforms-3/36a45b2abb854eca36c578fbec6ed4df/transformed/jetified-window-1.0.0-beta04/AndroidManifest.xml:24:5-31:19
MERGED from [com.google.firebase:firebase-firestore:24.4.2] /Users/joyboy/.gradle/caches/transforms-3/499e10e5f3f8cb73e54279727e058317/transformed/jetified-firebase-firestore-24.4.2/AndroidManifest.xml:15:5-23:19
MERGED from [com.google.firebase:firebase-firestore:24.4.2] /Users/joyboy/.gradle/caches/transforms-3/499e10e5f3f8cb73e54279727e058317/transformed/jetified-firebase-firestore-24.4.2/AndroidManifest.xml:15:5-23:19
MERGED from [com.google.firebase:firebase-database:20.1.0] /Users/joyboy/.gradle/caches/transforms-3/7d4f7974990a5d598544643415bc8124/transformed/jetified-firebase-database-20.1.0/AndroidManifest.xml:27:5-35:19
MERGED from [com.google.firebase:firebase-database:20.1.0] /Users/joyboy/.gradle/caches/transforms-3/7d4f7974990a5d598544643415bc8124/transformed/jetified-firebase-database-20.1.0/AndroidManifest.xml:27:5-35:19
MERGED from [com.google.firebase:firebase-auth-interop:19.0.2] /Users/joyboy/.gradle/caches/transforms-3/2e46627b3c6948a4e66a492934e4c03a/transformed/jetified-firebase-auth-interop-19.0.2/AndroidManifest.xml:7:5-8:19
MERGED from [com.google.firebase:firebase-auth-interop:19.0.2] /Users/joyboy/.gradle/caches/transforms-3/2e46627b3c6948a4e66a492934e4c03a/transformed/jetified-firebase-auth-interop-19.0.2/AndroidManifest.xml:7:5-8:19
MERGED from [com.google.firebase:firebase-appcheck-interop:16.1.1] /Users/joyboy/.gradle/caches/transforms-3/8127e92143cc781b65e803cba74dd4a3/transformed/jetified-firebase-appcheck-interop-16.1.1/AndroidManifest.xml:23:5-20
MERGED from [com.google.firebase:firebase-appcheck-interop:16.1.1] /Users/joyboy/.gradle/caches/transforms-3/8127e92143cc781b65e803cba74dd4a3/transformed/jetified-firebase-appcheck-interop-16.1.1/AndroidManifest.xml:23:5-20
MERGED from [com.google.firebase:firebase-common:20.3.0] /Users/joyboy/.gradle/caches/transforms-3/17f61bb9398e1f5c13b56fc5aeeddc14/transformed/jetified-firebase-common-20.3.0/AndroidManifest.xml:24:5-37:19
MERGED from [com.google.firebase:firebase-common:20.3.0] /Users/joyboy/.gradle/caches/transforms-3/17f61bb9398e1f5c13b56fc5aeeddc14/transformed/jetified-firebase-common-20.3.0/AndroidManifest.xml:24:5-37:19
MERGED from [com.google.android.gms:play-services-location:21.0.1] /Users/joyboy/.gradle/caches/transforms-3/f3db43e253ca9ee423c0d43b74db3877/transformed/jetified-play-services-location-21.0.1/AndroidManifest.xml:7:5-20
MERGED from [com.google.android.gms:play-services-location:21.0.1] /Users/joyboy/.gradle/caches/transforms-3/f3db43e253ca9ee423c0d43b74db3877/transformed/jetified-play-services-location-21.0.1/AndroidManifest.xml:7:5-20
MERGED from [com.google.android.gms:play-services-base:18.1.0] /Users/joyboy/.gradle/caches/transforms-3/0861465e27f550a84b471cca91b81f1b/transformed/jetified-play-services-base-18.1.0/AndroidManifest.xml:19:5-23:19
MERGED from [com.google.android.gms:play-services-base:18.1.0] /Users/joyboy/.gradle/caches/transforms-3/0861465e27f550a84b471cca91b81f1b/transformed/jetified-play-services-base-18.1.0/AndroidManifest.xml:19:5-23:19
MERGED from [com.google.android.gms:play-services-tasks:18.0.2] /Users/joyboy/.gradle/caches/transforms-3/6dbc81e7d264b744e7c8d2c0231518b6/transformed/jetified-play-services-tasks-18.0.2/AndroidManifest.xml:5:5-20
MERGED from [com.google.android.gms:play-services-tasks:18.0.2] /Users/joyboy/.gradle/caches/transforms-3/6dbc81e7d264b744e7c8d2c0231518b6/transformed/jetified-play-services-tasks-18.0.2/AndroidManifest.xml:5:5-20
MERGED from [com.google.android.gms:play-services-basement:18.1.0] /Users/joyboy/.gradle/caches/transforms-3/4c5cefc4bced38f73a0cc4404fde07b9/transformed/jetified-play-services-basement-18.1.0/AndroidManifest.xml:20:5-24:19
MERGED from [com.google.android.gms:play-services-basement:18.1.0] /Users/joyboy/.gradle/caches/transforms-3/4c5cefc4bced38f73a0cc4404fde07b9/transformed/jetified-play-services-basement-18.1.0/AndroidManifest.xml:20:5-24:19
MERGED from [androidx.core:core:1.9.0] /Users/joyboy/.gradle/caches/transforms-3/50ac565c2d78ece85381646878fcb457/transformed/core-1.9.0/AndroidManifest.xml:28:5-89
MERGED from [androidx.core:core:1.9.0] /Users/joyboy/.gradle/caches/transforms-3/50ac565c2d78ece85381646878fcb457/transformed/core-1.9.0/AndroidManifest.xml:28:5-89
MERGED from [androidx.versionedparcelable:versionedparcelable:1.1.1] /Users/joyboy/.gradle/caches/transforms-3/dba112ebc3be4810c3cce06f5d27b05a/transformed/versionedparcelable-1.1.1/AndroidManifest.xml:24:5-25:19
MERGED from [androidx.versionedparcelable:versionedparcelable:1.1.1] /Users/joyboy/.gradle/caches/transforms-3/dba112ebc3be4810c3cce06f5d27b05a/transformed/versionedparcelable-1.1.1/AndroidManifest.xml:24:5-25:19
	android:appComponentFactory
		ADDED from [androidx.core:core:1.9.0] /Users/joyboy/.gradle/caches/transforms-3/50ac565c2d78ece85381646878fcb457/transformed/core-1.9.0/AndroidManifest.xml:28:18-86
	android:name
		INJECTED from /Users/joyboy/Desktop/Sempiterno/Capacitacion/Flutter/sesion 4/sesion4/android/app/src/main/AndroidManifest.xml
manifest
ADDED from /Users/joyboy/Desktop/Sempiterno/Capacitacion/Flutter/sesion 4/sesion4/android/app/src/main/AndroidManifest.xml:1:1-38:12
INJECTED from /Users/joyboy/Desktop/Sempiterno/Capacitacion/Flutter/sesion 4/sesion4/android/app/src/main/AndroidManifest.xml:1:1-38:12
INJECTED from /Users/joyboy/Desktop/Sempiterno/Capacitacion/Flutter/sesion 4/sesion4/android/app/src/main/AndroidManifest.xml:1:1-38:12
INJECTED from /Users/joyboy/Desktop/Sempiterno/Capacitacion/Flutter/sesion 4/sesion4/android/app/src/main/AndroidManifest.xml:1:1-38:12
MERGED from /Users/joyboy/Desktop/Sempiterno/Capacitacion/Flutter/sesion 4/sesion4/android/app/src/main/AndroidManifest.xml:1:1-38:12
MERGED from [:firebase_database] /Users/joyboy/Desktop/Sempiterno/Capacitacion/Flutter/sesion 4/sesion4/build/firebase_database/intermediates/merged_manifest/debug/AndroidManifest.xml:2:1-17:12
MERGED from [:cloud_firestore] /Users/joyboy/Desktop/Sempiterno/Capacitacion/Flutter/sesion 4/sesion4/build/cloud_firestore/intermediates/merged_manifest/debug/AndroidManifest.xml:2:1-17:12
MERGED from [:firebase_core] /Users/joyboy/Desktop/Sempiterno/Capacitacion/Flutter/sesion 4/sesion4/build/firebase_core/intermediates/merged_manifest/debug/AndroidManifest.xml:2:1-17:12
MERGED from [:image_picker_android] /Users/joyboy/Desktop/Sempiterno/Capacitacion/Flutter/sesion 4/sesion4/build/image_picker_android/intermediates/merged_manifest/debug/AndroidManifest.xml:2:1-21:12
MERGED from [:flutter_plugin_android_lifecycle] /Users/joyboy/Desktop/Sempiterno/Capacitacion/Flutter/sesion 4/sesion4/build/flutter_plugin_android_lifecycle/intermediates/merged_manifest/debug/AndroidManifest.xml:2:1-9:12
MERGED from [:geolocator_android] /Users/joyboy/Desktop/Sempiterno/Capacitacion/Flutter/sesion 4/sesion4/build/geolocator_android/intermediates/merged_manifest/debug/AndroidManifest.xml:2:1-19:12
MERGED from [androidx.window:window-java:1.0.0-beta04] /Users/joyboy/.gradle/caches/transforms-3/c640cbfc810dab2cae3c3f076d329b8c/transformed/jetified-window-java-1.0.0-beta04/AndroidManifest.xml:17:1-23:12
MERGED from [androidx.window:window:1.0.0-beta04] /Users/joyboy/.gradle/caches/transforms-3/36a45b2abb854eca36c578fbec6ed4df/transformed/jetified-window-1.0.0-beta04/AndroidManifest.xml:17:1-33:12
MERGED from [androidx.multidex:multidex:2.0.1] /Users/joyboy/.gradle/caches/transforms-3/ab368ed3e540cd4e71a2b2d76f5fe7f8/transformed/multidex-2.0.1/AndroidManifest.xml:17:1-22:12
MERGED from [com.google.firebase:firebase-firestore:24.4.2] /Users/joyboy/.gradle/caches/transforms-3/499e10e5f3f8cb73e54279727e058317/transformed/jetified-firebase-firestore-24.4.2/AndroidManifest.xml:2:1-25:12
MERGED from [com.google.firebase:firebase-database:20.1.0] /Users/joyboy/.gradle/caches/transforms-3/7d4f7974990a5d598544643415bc8124/transformed/jetified-firebase-database-20.1.0/AndroidManifest.xml:15:1-37:12
MERGED from [com.google.firebase:firebase-auth-interop:19.0.2] /Users/joyboy/.gradle/caches/transforms-3/2e46627b3c6948a4e66a492934e4c03a/transformed/jetified-firebase-auth-interop-19.0.2/AndroidManifest.xml:2:1-10:12
MERGED from [com.google.firebase:firebase-appcheck-interop:16.1.1] /Users/joyboy/.gradle/caches/transforms-3/8127e92143cc781b65e803cba74dd4a3/transformed/jetified-firebase-appcheck-interop-16.1.1/AndroidManifest.xml:15:1-25:12
MERGED from [com.google.firebase:firebase-common:20.3.0] /Users/joyboy/.gradle/caches/transforms-3/17f61bb9398e1f5c13b56fc5aeeddc14/transformed/jetified-firebase-common-20.3.0/AndroidManifest.xml:15:1-39:12
MERGED from [com.google.android.gms:play-services-location:21.0.1] /Users/joyboy/.gradle/caches/transforms-3/f3db43e253ca9ee423c0d43b74db3877/transformed/jetified-play-services-location-21.0.1/AndroidManifest.xml:2:1-9:12
MERGED from [com.google.firebase:firebase-database-collection:18.0.1] /Users/joyboy/.gradle/caches/transforms-3/66b55b0ad11cc295488e7ab8046971a4/transformed/jetified-firebase-database-collection-18.0.1/AndroidManifest.xml:2:1-9:12
MERGED from [com.google.android.gms:play-services-base:18.1.0] /Users/joyboy/.gradle/caches/transforms-3/0861465e27f550a84b471cca91b81f1b/transformed/jetified-play-services-base-18.1.0/AndroidManifest.xml:16:1-24:12
MERGED from [com.google.android.gms:play-services-tasks:18.0.2] /Users/joyboy/.gradle/caches/transforms-3/6dbc81e7d264b744e7c8d2c0231518b6/transformed/jetified-play-services-tasks-18.0.2/AndroidManifest.xml:2:1-6:12
MERGED from [com.google.android.gms:play-services-basement:18.1.0] /Users/joyboy/.gradle/caches/transforms-3/4c5cefc4bced38f73a0cc4404fde07b9/transformed/jetified-play-services-basement-18.1.0/AndroidManifest.xml:16:1-26:12
MERGED from [androidx.fragment:fragment:1.1.0] /Users/joyboy/.gradle/caches/transforms-3/fa75e48d4923f41f20e803e06f842cfa/transformed/fragment-1.1.0/AndroidManifest.xml:17:1-24:12
MERGED from [androidx.viewpager:viewpager:1.0.0] /Users/joyboy/.gradle/caches/transforms-3/f3e156f80a578e75411096f0a4c6c990/transformed/viewpager-1.0.0/AndroidManifest.xml:17:1-22:12
MERGED from [androidx.loader:loader:1.0.0] /Users/joyboy/.gradle/caches/transforms-3/5cfbecfbc8930dd599e097152431899b/transformed/loader-1.0.0/AndroidManifest.xml:17:1-22:12
MERGED from [androidx.activity:activity:1.0.0] /Users/joyboy/.gradle/caches/transforms-3/b926d41de0f52bf956782dec12d2b87d/transformed/jetified-activity-1.0.0/AndroidManifest.xml:17:1-24:12
MERGED from [androidx.customview:customview:1.0.0] /Users/joyboy/.gradle/caches/transforms-3/3b26863b4e469c0c4cb66589fb2fec23/transformed/customview-1.0.0/AndroidManifest.xml:17:1-22:12
MERGED from [androidx.core:core:1.9.0] /Users/joyboy/.gradle/caches/transforms-3/50ac565c2d78ece85381646878fcb457/transformed/core-1.9.0/AndroidManifest.xml:17:1-30:12
MERGED from [androidx.exifinterface:exifinterface:1.3.3] /Users/joyboy/.gradle/caches/transforms-3/378fd3bb25b9b46dc9aa3c7a19ee50c1/transformed/exifinterface-1.3.3/AndroidManifest.xml:17:1-24:12
MERGED from [androidx.tracing:tracing:1.0.0] /Users/joyboy/.gradle/caches/transforms-3/3fa14403e4a3b8cd6b59a8faed8860b0/transformed/jetified-tracing-1.0.0/AndroidManifest.xml:17:1-24:12
MERGED from [com.google.firebase:firebase-components:17.1.0] /Users/joyboy/.gradle/caches/transforms-3/a1cb1e561525ac6283393e5b0685aed4/transformed/jetified-firebase-components-17.1.0/AndroidManifest.xml:15:1-22:12
MERGED from [androidx.lifecycle:lifecycle-runtime:2.3.1] /Users/joyboy/.gradle/caches/transforms-3/08fe1e14f4c3029578f34ea327c707c9/transformed/lifecycle-runtime-2.3.1/AndroidManifest.xml:17:1-24:12
MERGED from [androidx.versionedparcelable:versionedparcelable:1.1.1] /Users/joyboy/.gradle/caches/transforms-3/dba112ebc3be4810c3cce06f5d27b05a/transformed/versionedparcelable-1.1.1/AndroidManifest.xml:17:1-27:12
MERGED from [androidx.savedstate:savedstate:1.0.0] /Users/joyboy/.gradle/caches/transforms-3/e94e6074f4bfb3a168eff6709aa9b93c/transformed/jetified-savedstate-1.0.0/AndroidManifest.xml:17:1-24:12
MERGED from [androidx.lifecycle:lifecycle-livedata:2.0.0] /Users/joyboy/.gradle/caches/transforms-3/3fbfa84abc4115a9c7854d25be66b2b1/transformed/lifecycle-livedata-2.0.0/AndroidManifest.xml:17:1-22:12
MERGED from [androidx.lifecycle:lifecycle-livedata-core:2.0.0] /Users/joyboy/.gradle/caches/transforms-3/9385e903bcfd803928456629a2587c1d/transformed/lifecycle-livedata-core-2.0.0/AndroidManifest.xml:17:1-22:12
MERGED from [androidx.arch.core:core-runtime:2.1.0] /Users/joyboy/.gradle/caches/transforms-3/5ae6f4b94732f87c6aa0a18828b436b8/transformed/core-runtime-2.1.0/AndroidManifest.xml:17:1-24:12
MERGED from [androidx.lifecycle:lifecycle-viewmodel:2.1.0] /Users/joyboy/.gradle/caches/transforms-3/8487da0b88451256438432bdee895b8c/transformed/lifecycle-viewmodel-2.1.0/AndroidManifest.xml:17:1-22:12
MERGED from [androidx.annotation:annotation-experimental:1.3.0] /Users/joyboy/.gradle/caches/transforms-3/910b5545868838a1a89f04d7e331c4bc/transformed/jetified-annotation-experimental-1.3.0/AndroidManifest.xml:17:1-22:12
MERGED from [com.google.firebase:protolite-well-known-types:18.0.0] /Users/joyboy/.gradle/caches/transforms-3/a2e3e084b9e5c3c8ed90d6c93add1b14/transformed/jetified-protolite-well-known-types-18.0.0/AndroidManifest.xml:2:1-11:12
MERGED from [io.grpc:grpc-android:1.50.2] /Users/joyboy/.gradle/caches/transforms-3/1d9b4dd3b63ff8730ebec3f2f4290d0a/transformed/jetified-grpc-android-1.50.2/AndroidManifest.xml:2:1-11:12
INJECTED from /Users/joyboy/Desktop/Sempiterno/Capacitacion/Flutter/sesion 4/sesion4/android/app/src/debug/AndroidManifest.xml:1:1-8:12
INJECTED from /Users/joyboy/Desktop/Sempiterno/Capacitacion/Flutter/sesion 4/sesion4/android/app/src/debug/AndroidManifest.xml:1:1-8:12
INJECTED from /Users/joyboy/Desktop/Sempiterno/Capacitacion/Flutter/sesion 4/sesion4/android/app/src/debug/AndroidManifest.xml:1:1-8:12
	package
		ADDED from /Users/joyboy/Desktop/Sempiterno/Capacitacion/Flutter/sesion 4/sesion4/android/app/src/main/AndroidManifest.xml:2:5-34
		INJECTED from /Users/joyboy/Desktop/Sempiterno/Capacitacion/Flutter/sesion 4/sesion4/android/app/src/main/AndroidManifest.xml
		INJECTED from /Users/joyboy/Desktop/Sempiterno/Capacitacion/Flutter/sesion 4/sesion4/android/app/src/debug/AndroidManifest.xml
	android:versionName
		INJECTED from /Users/joyboy/Desktop/Sempiterno/Capacitacion/Flutter/sesion 4/sesion4/android/app/src/main/AndroidManifest.xml
		ADDED from /Users/joyboy/Desktop/Sempiterno/Capacitacion/Flutter/sesion 4/sesion4/android/app/src/main/AndroidManifest.xml:1:1-38:12
		INJECTED from /Users/joyboy/Desktop/Sempiterno/Capacitacion/Flutter/sesion 4/sesion4/android/app/src/debug/AndroidManifest.xml
	android:versionCode
		INJECTED from /Users/joyboy/Desktop/Sempiterno/Capacitacion/Flutter/sesion 4/sesion4/android/app/src/main/AndroidManifest.xml
		ADDED from /Users/joyboy/Desktop/Sempiterno/Capacitacion/Flutter/sesion 4/sesion4/android/app/src/main/AndroidManifest.xml:1:1-38:12
		INJECTED from /Users/joyboy/Desktop/Sempiterno/Capacitacion/Flutter/sesion 4/sesion4/android/app/src/debug/AndroidManifest.xml
	xmlns:android
		ADDED from /Users/joyboy/Desktop/Sempiterno/Capacitacion/Flutter/sesion 4/sesion4/android/app/src/main/AndroidManifest.xml:1:11-69
uses-permission#android.permission.ACCESS_FINE_LOCATION
ADDED from /Users/joyboy/Desktop/Sempiterno/Capacitacion/Flutter/sesion 4/sesion4/android/app/src/main/AndroidManifest.xml:4:5-79
	android:name
		ADDED from /Users/joyboy/Desktop/Sempiterno/Capacitacion/Flutter/sesion 4/sesion4/android/app/src/main/AndroidManifest.xml:4:22-76
uses-permission#android.permission.ACCESS_COARSE_LOCATION
ADDED from /Users/joyboy/Desktop/Sempiterno/Capacitacion/Flutter/sesion 4/sesion4/android/app/src/main/AndroidManifest.xml:5:5-81
	android:name
		ADDED from /Users/joyboy/Desktop/Sempiterno/Capacitacion/Flutter/sesion 4/sesion4/android/app/src/main/AndroidManifest.xml:5:22-78
uses-sdk
INJECTED from /Users/joyboy/Desktop/Sempiterno/Capacitacion/Flutter/sesion 4/sesion4/android/app/src/main/AndroidManifest.xml reason: use-sdk injection requested
INJECTED from /Users/joyboy/Desktop/Sempiterno/Capacitacion/Flutter/sesion 4/sesion4/android/app/src/main/AndroidManifest.xml
INJECTED from /Users/joyboy/Desktop/Sempiterno/Capacitacion/Flutter/sesion 4/sesion4/android/app/src/main/AndroidManifest.xml
MERGED from [:firebase_database] /Users/joyboy/Desktop/Sempiterno/Capacitacion/Flutter/sesion 4/sesion4/build/firebase_database/intermediates/merged_manifest/debug/AndroidManifest.xml:5:5-7:41
MERGED from [:firebase_database] /Users/joyboy/Desktop/Sempiterno/Capacitacion/Flutter/sesion 4/sesion4/build/firebase_database/intermediates/merged_manifest/debug/AndroidManifest.xml:5:5-7:41
MERGED from [:cloud_firestore] /Users/joyboy/Desktop/Sempiterno/Capacitacion/Flutter/sesion 4/sesion4/build/cloud_firestore/intermediates/merged_manifest/debug/AndroidManifest.xml:5:5-7:41
MERGED from [:cloud_firestore] /Users/joyboy/Desktop/Sempiterno/Capacitacion/Flutter/sesion 4/sesion4/build/cloud_firestore/intermediates/merged_manifest/debug/AndroidManifest.xml:5:5-7:41
MERGED from [:firebase_core] /Users/joyboy/Desktop/Sempiterno/Capacitacion/Flutter/sesion 4/sesion4/build/firebase_core/intermediates/merged_manifest/debug/AndroidManifest.xml:5:5-7:41
MERGED from [:firebase_core] /Users/joyboy/Desktop/Sempiterno/Capacitacion/Flutter/sesion 4/sesion4/build/firebase_core/intermediates/merged_manifest/debug/AndroidManifest.xml:5:5-7:41
MERGED from [:image_picker_android] /Users/joyboy/Desktop/Sempiterno/Capacitacion/Flutter/sesion 4/sesion4/build/image_picker_android/intermediates/merged_manifest/debug/AndroidManifest.xml:5:5-7:41
MERGED from [:image_picker_android] /Users/joyboy/Desktop/Sempiterno/Capacitacion/Flutter/sesion 4/sesion4/build/image_picker_android/intermediates/merged_manifest/debug/AndroidManifest.xml:5:5-7:41
MERGED from [:flutter_plugin_android_lifecycle] /Users/joyboy/Desktop/Sempiterno/Capacitacion/Flutter/sesion 4/sesion4/build/flutter_plugin_android_lifecycle/intermediates/merged_manifest/debug/AndroidManifest.xml:5:5-7:41
MERGED from [:flutter_plugin_android_lifecycle] /Users/joyboy/Desktop/Sempiterno/Capacitacion/Flutter/sesion 4/sesion4/build/flutter_plugin_android_lifecycle/intermediates/merged_manifest/debug/AndroidManifest.xml:5:5-7:41
MERGED from [:geolocator_android] /Users/joyboy/Desktop/Sempiterno/Capacitacion/Flutter/sesion 4/sesion4/build/geolocator_android/intermediates/merged_manifest/debug/AndroidManifest.xml:5:5-7:41
MERGED from [:geolocator_android] /Users/joyboy/Desktop/Sempiterno/Capacitacion/Flutter/sesion 4/sesion4/build/geolocator_android/intermediates/merged_manifest/debug/AndroidManifest.xml:5:5-7:41
MERGED from [androidx.window:window-java:1.0.0-beta04] /Users/joyboy/.gradle/caches/transforms-3/c640cbfc810dab2cae3c3f076d329b8c/transformed/jetified-window-java-1.0.0-beta04/AndroidManifest.xml:19:5-21:41
MERGED from [androidx.window:window-java:1.0.0-beta04] /Users/joyboy/.gradle/caches/transforms-3/c640cbfc810dab2cae3c3f076d329b8c/transformed/jetified-window-java-1.0.0-beta04/AndroidManifest.xml:19:5-21:41
MERGED from [androidx.window:window:1.0.0-beta04] /Users/joyboy/.gradle/caches/transforms-3/36a45b2abb854eca36c578fbec6ed4df/transformed/jetified-window-1.0.0-beta04/AndroidManifest.xml:20:5-22:41
MERGED from [androidx.window:window:1.0.0-beta04] /Users/joyboy/.gradle/caches/transforms-3/36a45b2abb854eca36c578fbec6ed4df/transformed/jetified-window-1.0.0-beta04/AndroidManifest.xml:20:5-22:41
MERGED from [androidx.multidex:multidex:2.0.1] /Users/joyboy/.gradle/caches/transforms-3/ab368ed3e540cd4e71a2b2d76f5fe7f8/transformed/multidex-2.0.1/AndroidManifest.xml:20:5-43
MERGED from [androidx.multidex:multidex:2.0.1] /Users/joyboy/.gradle/caches/transforms-3/ab368ed3e540cd4e71a2b2d76f5fe7f8/transformed/multidex-2.0.1/AndroidManifest.xml:20:5-43
MERGED from [com.google.firebase:firebase-firestore:24.4.2] /Users/joyboy/.gradle/caches/transforms-3/499e10e5f3f8cb73e54279727e058317/transformed/jetified-firebase-firestore-24.4.2/AndroidManifest.xml:6:5-8:41
MERGED from [com.google.firebase:firebase-firestore:24.4.2] /Users/joyboy/.gradle/caches/transforms-3/499e10e5f3f8cb73e54279727e058317/transformed/jetified-firebase-firestore-24.4.2/AndroidManifest.xml:6:5-8:41
MERGED from [com.google.firebase:firebase-database:20.1.0] /Users/joyboy/.gradle/caches/transforms-3/7d4f7974990a5d598544643415bc8124/transformed/jetified-firebase-database-20.1.0/AndroidManifest.xml:18:5-20:41
MERGED from [com.google.firebase:firebase-database:20.1.0] /Users/joyboy/.gradle/caches/transforms-3/7d4f7974990a5d598544643415bc8124/transformed/jetified-firebase-database-20.1.0/AndroidManifest.xml:18:5-20:41
MERGED from [com.google.firebase:firebase-auth-interop:19.0.2] /Users/joyboy/.gradle/caches/transforms-3/2e46627b3c6948a4e66a492934e4c03a/transformed/jetified-firebase-auth-interop-19.0.2/AndroidManifest.xml:5:5-44
MERGED from [com.google.firebase:firebase-auth-interop:19.0.2] /Users/joyboy/.gradle/caches/transforms-3/2e46627b3c6948a4e66a492934e4c03a/transformed/jetified-firebase-auth-interop-19.0.2/AndroidManifest.xml:5:5-44
MERGED from [com.google.firebase:firebase-appcheck-interop:16.1.1] /Users/joyboy/.gradle/caches/transforms-3/8127e92143cc781b65e803cba74dd4a3/transformed/jetified-firebase-appcheck-interop-16.1.1/AndroidManifest.xml:18:5-20:41
MERGED from [com.google.firebase:firebase-appcheck-interop:16.1.1] /Users/joyboy/.gradle/caches/transforms-3/8127e92143cc781b65e803cba74dd4a3/transformed/jetified-firebase-appcheck-interop-16.1.1/AndroidManifest.xml:18:5-20:41
MERGED from [com.google.firebase:firebase-common:20.3.0] /Users/joyboy/.gradle/caches/transforms-3/17f61bb9398e1f5c13b56fc5aeeddc14/transformed/jetified-firebase-common-20.3.0/AndroidManifest.xml:19:5-21:41
MERGED from [com.google.firebase:firebase-common:20.3.0] /Users/joyboy/.gradle/caches/transforms-3/17f61bb9398e1f5c13b56fc5aeeddc14/transformed/jetified-firebase-common-20.3.0/AndroidManifest.xml:19:5-21:41
MERGED from [com.google.android.gms:play-services-location:21.0.1] /Users/joyboy/.gradle/caches/transforms-3/f3db43e253ca9ee423c0d43b74db3877/transformed/jetified-play-services-location-21.0.1/AndroidManifest.xml:5:5-44
MERGED from [com.google.android.gms:play-services-location:21.0.1] /Users/joyboy/.gradle/caches/transforms-3/f3db43e253ca9ee423c0d43b74db3877/transformed/jetified-play-services-location-21.0.1/AndroidManifest.xml:5:5-44
MERGED from [com.google.firebase:firebase-database-collection:18.0.1] /Users/joyboy/.gradle/caches/transforms-3/66b55b0ad11cc295488e7ab8046971a4/transformed/jetified-firebase-database-collection-18.0.1/AndroidManifest.xml:5:5-7:41
MERGED from [com.google.firebase:firebase-database-collection:18.0.1] /Users/joyboy/.gradle/caches/transforms-3/66b55b0ad11cc295488e7ab8046971a4/transformed/jetified-firebase-database-collection-18.0.1/AndroidManifest.xml:5:5-7:41
MERGED from [com.google.android.gms:play-services-base:18.1.0] /Users/joyboy/.gradle/caches/transforms-3/0861465e27f550a84b471cca91b81f1b/transformed/jetified-play-services-base-18.1.0/AndroidManifest.xml:18:5-43
MERGED from [com.google.android.gms:play-services-base:18.1.0] /Users/joyboy/.gradle/caches/transforms-3/0861465e27f550a84b471cca91b81f1b/transformed/jetified-play-services-base-18.1.0/AndroidManifest.xml:18:5-43
MERGED from [com.google.android.gms:play-services-tasks:18.0.2] /Users/joyboy/.gradle/caches/transforms-3/6dbc81e7d264b744e7c8d2c0231518b6/transformed/jetified-play-services-tasks-18.0.2/AndroidManifest.xml:4:5-43
MERGED from [com.google.android.gms:play-services-tasks:18.0.2] /Users/joyboy/.gradle/caches/transforms-3/6dbc81e7d264b744e7c8d2c0231518b6/transformed/jetified-play-services-tasks-18.0.2/AndroidManifest.xml:4:5-43
MERGED from [com.google.android.gms:play-services-basement:18.1.0] /Users/joyboy/.gradle/caches/transforms-3/4c5cefc4bced38f73a0cc4404fde07b9/transformed/jetified-play-services-basement-18.1.0/AndroidManifest.xml:18:5-43
MERGED from [com.google.android.gms:play-services-basement:18.1.0] /Users/joyboy/.gradle/caches/transforms-3/4c5cefc4bced38f73a0cc4404fde07b9/transformed/jetified-play-services-basement-18.1.0/AndroidManifest.xml:18:5-43
MERGED from [androidx.fragment:fragment:1.1.0] /Users/joyboy/.gradle/caches/transforms-3/fa75e48d4923f41f20e803e06f842cfa/transformed/fragment-1.1.0/AndroidManifest.xml:20:5-22:41
MERGED from [androidx.fragment:fragment:1.1.0] /Users/joyboy/.gradle/caches/transforms-3/fa75e48d4923f41f20e803e06f842cfa/transformed/fragment-1.1.0/AndroidManifest.xml:20:5-22:41
MERGED from [androidx.viewpager:viewpager:1.0.0] /Users/joyboy/.gradle/caches/transforms-3/f3e156f80a578e75411096f0a4c6c990/transformed/viewpager-1.0.0/AndroidManifest.xml:20:5-44
MERGED from [androidx.viewpager:viewpager:1.0.0] /Users/joyboy/.gradle/caches/transforms-3/f3e156f80a578e75411096f0a4c6c990/transformed/viewpager-1.0.0/AndroidManifest.xml:20:5-44
MERGED from [androidx.loader:loader:1.0.0] /Users/joyboy/.gradle/caches/transforms-3/5cfbecfbc8930dd599e097152431899b/transformed/loader-1.0.0/AndroidManifest.xml:20:5-44
MERGED from [androidx.loader:loader:1.0.0] /Users/joyboy/.gradle/caches/transforms-3/5cfbecfbc8930dd599e097152431899b/transformed/loader-1.0.0/AndroidManifest.xml:20:5-44
MERGED from [androidx.activity:activity:1.0.0] /Users/joyboy/.gradle/caches/transforms-3/b926d41de0f52bf956782dec12d2b87d/transformed/jetified-activity-1.0.0/AndroidManifest.xml:20:5-22:41
MERGED from [androidx.activity:activity:1.0.0] /Users/joyboy/.gradle/caches/transforms-3/b926d41de0f52bf956782dec12d2b87d/transformed/jetified-activity-1.0.0/AndroidManifest.xml:20:5-22:41
MERGED from [androidx.customview:customview:1.0.0] /Users/joyboy/.gradle/caches/transforms-3/3b26863b4e469c0c4cb66589fb2fec23/transformed/customview-1.0.0/AndroidManifest.xml:20:5-44
MERGED from [androidx.customview:customview:1.0.0] /Users/joyboy/.gradle/caches/transforms-3/3b26863b4e469c0c4cb66589fb2fec23/transformed/customview-1.0.0/AndroidManifest.xml:20:5-44
MERGED from [androidx.core:core:1.9.0] /Users/joyboy/.gradle/caches/transforms-3/50ac565c2d78ece85381646878fcb457/transformed/core-1.9.0/AndroidManifest.xml:20:5-44
MERGED from [androidx.core:core:1.9.0] /Users/joyboy/.gradle/caches/transforms-3/50ac565c2d78ece85381646878fcb457/transformed/core-1.9.0/AndroidManifest.xml:20:5-44
MERGED from [androidx.exifinterface:exifinterface:1.3.3] /Users/joyboy/.gradle/caches/transforms-3/378fd3bb25b9b46dc9aa3c7a19ee50c1/transformed/exifinterface-1.3.3/AndroidManifest.xml:20:5-22:41
MERGED from [androidx.exifinterface:exifinterface:1.3.3] /Users/joyboy/.gradle/caches/transforms-3/378fd3bb25b9b46dc9aa3c7a19ee50c1/transformed/exifinterface-1.3.3/AndroidManifest.xml:20:5-22:41
MERGED from [androidx.tracing:tracing:1.0.0] /Users/joyboy/.gradle/caches/transforms-3/3fa14403e4a3b8cd6b59a8faed8860b0/transformed/jetified-tracing-1.0.0/AndroidManifest.xml:20:5-22:41
MERGED from [androidx.tracing:tracing:1.0.0] /Users/joyboy/.gradle/caches/transforms-3/3fa14403e4a3b8cd6b59a8faed8860b0/transformed/jetified-tracing-1.0.0/AndroidManifest.xml:20:5-22:41
MERGED from [com.google.firebase:firebase-components:17.1.0] /Users/joyboy/.gradle/caches/transforms-3/a1cb1e561525ac6283393e5b0685aed4/transformed/jetified-firebase-components-17.1.0/AndroidManifest.xml:18:5-20:41
MERGED from [com.google.firebase:firebase-components:17.1.0] /Users/joyboy/.gradle/caches/transforms-3/a1cb1e561525ac6283393e5b0685aed4/transformed/jetified-firebase-components-17.1.0/AndroidManifest.xml:18:5-20:41
MERGED from [androidx.lifecycle:lifecycle-runtime:2.3.1] /Users/joyboy/.gradle/caches/transforms-3/08fe1e14f4c3029578f34ea327c707c9/transformed/lifecycle-runtime-2.3.1/AndroidManifest.xml:20:5-22:41
MERGED from [androidx.lifecycle:lifecycle-runtime:2.3.1] /Users/joyboy/.gradle/caches/transforms-3/08fe1e14f4c3029578f34ea327c707c9/transformed/lifecycle-runtime-2.3.1/AndroidManifest.xml:20:5-22:41
MERGED from [androidx.versionedparcelable:versionedparcelable:1.1.1] /Users/joyboy/.gradle/caches/transforms-3/dba112ebc3be4810c3cce06f5d27b05a/transformed/versionedparcelable-1.1.1/AndroidManifest.xml:20:5-22:41
MERGED from [androidx.versionedparcelable:versionedparcelable:1.1.1] /Users/joyboy/.gradle/caches/transforms-3/dba112ebc3be4810c3cce06f5d27b05a/transformed/versionedparcelable-1.1.1/AndroidManifest.xml:20:5-22:41
MERGED from [androidx.savedstate:savedstate:1.0.0] /Users/joyboy/.gradle/caches/transforms-3/e94e6074f4bfb3a168eff6709aa9b93c/transformed/jetified-savedstate-1.0.0/AndroidManifest.xml:20:5-22:41
MERGED from [androidx.savedstate:savedstate:1.0.0] /Users/joyboy/.gradle/caches/transforms-3/e94e6074f4bfb3a168eff6709aa9b93c/transformed/jetified-savedstate-1.0.0/AndroidManifest.xml:20:5-22:41
MERGED from [androidx.lifecycle:lifecycle-livedata:2.0.0] /Users/joyboy/.gradle/caches/transforms-3/3fbfa84abc4115a9c7854d25be66b2b1/transformed/lifecycle-livedata-2.0.0/AndroidManifest.xml:20:5-44
MERGED from [androidx.lifecycle:lifecycle-livedata:2.0.0] /Users/joyboy/.gradle/caches/transforms-3/3fbfa84abc4115a9c7854d25be66b2b1/transformed/lifecycle-livedata-2.0.0/AndroidManifest.xml:20:5-44
MERGED from [androidx.lifecycle:lifecycle-livedata-core:2.0.0] /Users/joyboy/.gradle/caches/transforms-3/9385e903bcfd803928456629a2587c1d/transformed/lifecycle-livedata-core-2.0.0/AndroidManifest.xml:20:5-44
MERGED from [androidx.lifecycle:lifecycle-livedata-core:2.0.0] /Users/joyboy/.gradle/caches/transforms-3/9385e903bcfd803928456629a2587c1d/transformed/lifecycle-livedata-core-2.0.0/AndroidManifest.xml:20:5-44
MERGED from [androidx.arch.core:core-runtime:2.1.0] /Users/joyboy/.gradle/caches/transforms-3/5ae6f4b94732f87c6aa0a18828b436b8/transformed/core-runtime-2.1.0/AndroidManifest.xml:20:5-22:41
MERGED from [androidx.arch.core:core-runtime:2.1.0] /Users/joyboy/.gradle/caches/transforms-3/5ae6f4b94732f87c6aa0a18828b436b8/transformed/core-runtime-2.1.0/AndroidManifest.xml:20:5-22:41
MERGED from [androidx.lifecycle:lifecycle-viewmodel:2.1.0] /Users/joyboy/.gradle/caches/transforms-3/8487da0b88451256438432bdee895b8c/transformed/lifecycle-viewmodel-2.1.0/AndroidManifest.xml:20:5-44
MERGED from [androidx.lifecycle:lifecycle-viewmodel:2.1.0] /Users/joyboy/.gradle/caches/transforms-3/8487da0b88451256438432bdee895b8c/transformed/lifecycle-viewmodel-2.1.0/AndroidManifest.xml:20:5-44
MERGED from [androidx.annotation:annotation-experimental:1.3.0] /Users/joyboy/.gradle/caches/transforms-3/910b5545868838a1a89f04d7e331c4bc/transformed/jetified-annotation-experimental-1.3.0/AndroidManifest.xml:20:5-44
MERGED from [androidx.annotation:annotation-experimental:1.3.0] /Users/joyboy/.gradle/caches/transforms-3/910b5545868838a1a89f04d7e331c4bc/transformed/jetified-annotation-experimental-1.3.0/AndroidManifest.xml:20:5-44
MERGED from [com.google.firebase:protolite-well-known-types:18.0.0] /Users/joyboy/.gradle/caches/transforms-3/a2e3e084b9e5c3c8ed90d6c93add1b14/transformed/jetified-protolite-well-known-types-18.0.0/AndroidManifest.xml:7:5-9:41
MERGED from [com.google.firebase:protolite-well-known-types:18.0.0] /Users/joyboy/.gradle/caches/transforms-3/a2e3e084b9e5c3c8ed90d6c93add1b14/transformed/jetified-protolite-well-known-types-18.0.0/AndroidManifest.xml:7:5-9:41
MERGED from [io.grpc:grpc-android:1.50.2] /Users/joyboy/.gradle/caches/transforms-3/1d9b4dd3b63ff8730ebec3f2f4290d0a/transformed/jetified-grpc-android-1.50.2/AndroidManifest.xml:5:5-7:41
MERGED from [io.grpc:grpc-android:1.50.2] /Users/joyboy/.gradle/caches/transforms-3/1d9b4dd3b63ff8730ebec3f2f4290d0a/transformed/jetified-grpc-android-1.50.2/AndroidManifest.xml:5:5-7:41
INJECTED from /Users/joyboy/Desktop/Sempiterno/Capacitacion/Flutter/sesion 4/sesion4/android/app/src/debug/AndroidManifest.xml
INJECTED from /Users/joyboy/Desktop/Sempiterno/Capacitacion/Flutter/sesion 4/sesion4/android/app/src/debug/AndroidManifest.xml
	android:targetSdkVersion
		INJECTED from /Users/joyboy/Desktop/Sempiterno/Capacitacion/Flutter/sesion 4/sesion4/android/app/src/main/AndroidManifest.xml
		INJECTED from /Users/joyboy/Desktop/Sempiterno/Capacitacion/Flutter/sesion 4/sesion4/android/app/src/debug/AndroidManifest.xml
	android:minSdkVersion
		INJECTED from /Users/joyboy/Desktop/Sempiterno/Capacitacion/Flutter/sesion 4/sesion4/android/app/src/main/AndroidManifest.xml
		INJECTED from /Users/joyboy/Desktop/Sempiterno/Capacitacion/Flutter/sesion 4/sesion4/android/app/src/debug/AndroidManifest.xml
uses-permission#android.permission.INTERNET
ADDED from /Users/joyboy/Desktop/Sempiterno/Capacitacion/Flutter/sesion 4/sesion4/android/app/src/debug/AndroidManifest.xml:7:5-66
MERGED from [com.google.firebase:firebase-firestore:24.4.2] /Users/joyboy/.gradle/caches/transforms-3/499e10e5f3f8cb73e54279727e058317/transformed/jetified-firebase-firestore-24.4.2/AndroidManifest.xml:13:5-67
MERGED from [com.google.firebase:firebase-firestore:24.4.2] /Users/joyboy/.gradle/caches/transforms-3/499e10e5f3f8cb73e54279727e058317/transformed/jetified-firebase-firestore-24.4.2/AndroidManifest.xml:13:5-67
MERGED from [com.google.firebase:firebase-database:20.1.0] /Users/joyboy/.gradle/caches/transforms-3/7d4f7974990a5d598544643415bc8124/transformed/jetified-firebase-database-20.1.0/AndroidManifest.xml:25:5-67
MERGED from [com.google.firebase:firebase-database:20.1.0] /Users/joyboy/.gradle/caches/transforms-3/7d4f7974990a5d598544643415bc8124/transformed/jetified-firebase-database-20.1.0/AndroidManifest.xml:25:5-67
	android:name
		ADDED from /Users/joyboy/Desktop/Sempiterno/Capacitacion/Flutter/sesion 4/sesion4/android/app/src/debug/AndroidManifest.xml:7:22-64
service#com.google.firebase.components.ComponentDiscoveryService
ADDED from [:firebase_database] /Users/joyboy/Desktop/Sempiterno/Capacitacion/Flutter/sesion 4/sesion4/build/firebase_database/intermediates/merged_manifest/debug/AndroidManifest.xml:10:9-14:19
MERGED from [:cloud_firestore] /Users/joyboy/Desktop/Sempiterno/Capacitacion/Flutter/sesion 4/sesion4/build/cloud_firestore/intermediates/merged_manifest/debug/AndroidManifest.xml:10:9-14:19
MERGED from [:cloud_firestore] /Users/joyboy/Desktop/Sempiterno/Capacitacion/Flutter/sesion 4/sesion4/build/cloud_firestore/intermediates/merged_manifest/debug/AndroidManifest.xml:10:9-14:19
MERGED from [:firebase_core] /Users/joyboy/Desktop/Sempiterno/Capacitacion/Flutter/sesion 4/sesion4/build/firebase_core/intermediates/merged_manifest/debug/AndroidManifest.xml:10:9-14:19
MERGED from [:firebase_core] /Users/joyboy/Desktop/Sempiterno/Capacitacion/Flutter/sesion 4/sesion4/build/firebase_core/intermediates/merged_manifest/debug/AndroidManifest.xml:10:9-14:19
MERGED from [com.google.firebase:firebase-firestore:24.4.2] /Users/joyboy/.gradle/caches/transforms-3/499e10e5f3f8cb73e54279727e058317/transformed/jetified-firebase-firestore-24.4.2/AndroidManifest.xml:16:9-22:19
MERGED from [com.google.firebase:firebase-firestore:24.4.2] /Users/joyboy/.gradle/caches/transforms-3/499e10e5f3f8cb73e54279727e058317/transformed/jetified-firebase-firestore-24.4.2/AndroidManifest.xml:16:9-22:19
MERGED from [com.google.firebase:firebase-database:20.1.0] /Users/joyboy/.gradle/caches/transforms-3/7d4f7974990a5d598544643415bc8124/transformed/jetified-firebase-database-20.1.0/AndroidManifest.xml:28:9-34:19
MERGED from [com.google.firebase:firebase-database:20.1.0] /Users/joyboy/.gradle/caches/transforms-3/7d4f7974990a5d598544643415bc8124/transformed/jetified-firebase-database-20.1.0/AndroidManifest.xml:28:9-34:19
MERGED from [com.google.firebase:firebase-common:20.3.0] /Users/joyboy/.gradle/caches/transforms-3/17f61bb9398e1f5c13b56fc5aeeddc14/transformed/jetified-firebase-common-20.3.0/AndroidManifest.xml:32:9-36:35
MERGED from [com.google.firebase:firebase-common:20.3.0] /Users/joyboy/.gradle/caches/transforms-3/17f61bb9398e1f5c13b56fc5aeeddc14/transformed/jetified-firebase-common-20.3.0/AndroidManifest.xml:32:9-36:35
	android:exported
		ADDED from [com.google.firebase:firebase-firestore:24.4.2] /Users/joyboy/.gradle/caches/transforms-3/499e10e5f3f8cb73e54279727e058317/transformed/jetified-firebase-firestore-24.4.2/AndroidManifest.xml:18:13-37
	tools:targetApi
		ADDED from [com.google.firebase:firebase-common:20.3.0] /Users/joyboy/.gradle/caches/transforms-3/17f61bb9398e1f5c13b56fc5aeeddc14/transformed/jetified-firebase-common-20.3.0/AndroidManifest.xml:36:13-32
	android:directBootAware
		ADDED from [com.google.firebase:firebase-common:20.3.0] /Users/joyboy/.gradle/caches/transforms-3/17f61bb9398e1f5c13b56fc5aeeddc14/transformed/jetified-firebase-common-20.3.0/AndroidManifest.xml:34:13-43
	android:name
		ADDED from [:firebase_database] /Users/joyboy/Desktop/Sempiterno/Capacitacion/Flutter/sesion 4/sesion4/build/firebase_database/intermediates/merged_manifest/debug/AndroidManifest.xml:10:18-89
meta-data#com.google.firebase.components:io.flutter.plugins.firebase.database.FlutterFirebaseAppRegistrar
ADDED from [:firebase_database] /Users/joyboy/Desktop/Sempiterno/Capacitacion/Flutter/sesion 4/sesion4/build/firebase_database/intermediates/merged_manifest/debug/AndroidManifest.xml:11:13-13:85
	android:value
		ADDED from [:firebase_database] /Users/joyboy/Desktop/Sempiterno/Capacitacion/Flutter/sesion 4/sesion4/build/firebase_database/intermediates/merged_manifest/debug/AndroidManifest.xml:13:17-82
	android:name
		ADDED from [:firebase_database] /Users/joyboy/Desktop/Sempiterno/Capacitacion/Flutter/sesion 4/sesion4/build/firebase_database/intermediates/merged_manifest/debug/AndroidManifest.xml:12:17-127
meta-data#com.google.firebase.components:io.flutter.plugins.firebase.firestore.FlutterFirebaseFirestoreRegistrar
ADDED from [:cloud_firestore] /Users/joyboy/Desktop/Sempiterno/Capacitacion/Flutter/sesion 4/sesion4/build/cloud_firestore/intermediates/merged_manifest/debug/AndroidManifest.xml:11:13-13:85
	android:value
		ADDED from [:cloud_firestore] /Users/joyboy/Desktop/Sempiterno/Capacitacion/Flutter/sesion 4/sesion4/build/cloud_firestore/intermediates/merged_manifest/debug/AndroidManifest.xml:13:17-82
	android:name
		ADDED from [:cloud_firestore] /Users/joyboy/Desktop/Sempiterno/Capacitacion/Flutter/sesion 4/sesion4/build/cloud_firestore/intermediates/merged_manifest/debug/AndroidManifest.xml:12:17-134
meta-data#com.google.firebase.components:io.flutter.plugins.firebase.core.FlutterFirebaseCoreRegistrar
ADDED from [:firebase_core] /Users/joyboy/Desktop/Sempiterno/Capacitacion/Flutter/sesion 4/sesion4/build/firebase_core/intermediates/merged_manifest/debug/AndroidManifest.xml:11:13-13:85
	android:value
		ADDED from [:firebase_core] /Users/joyboy/Desktop/Sempiterno/Capacitacion/Flutter/sesion 4/sesion4/build/firebase_core/intermediates/merged_manifest/debug/AndroidManifest.xml:13:17-82
	android:name
		ADDED from [:firebase_core] /Users/joyboy/Desktop/Sempiterno/Capacitacion/Flutter/sesion 4/sesion4/build/firebase_core/intermediates/merged_manifest/debug/AndroidManifest.xml:12:17-124
provider#io.flutter.plugins.imagepicker.ImagePickerFileProvider
ADDED from [:image_picker_android] /Users/joyboy/Desktop/Sempiterno/Capacitacion/Flutter/sesion 4/sesion4/build/image_picker_android/intermediates/merged_manifest/debug/AndroidManifest.xml:10:9-18:20
	android:grantUriPermissions
		ADDED from [:image_picker_android] /Users/joyboy/Desktop/Sempiterno/Capacitacion/Flutter/sesion 4/sesion4/build/image_picker_android/intermediates/merged_manifest/debug/AndroidManifest.xml:14:13-47
	android:authorities
		ADDED from [:image_picker_android] /Users/joyboy/Desktop/Sempiterno/Capacitacion/Flutter/sesion 4/sesion4/build/image_picker_android/intermediates/merged_manifest/debug/AndroidManifest.xml:12:13-74
	android:exported
		ADDED from [:image_picker_android] /Users/joyboy/Desktop/Sempiterno/Capacitacion/Flutter/sesion 4/sesion4/build/image_picker_android/intermediates/merged_manifest/debug/AndroidManifest.xml:13:13-37
	android:name
		ADDED from [:image_picker_android] /Users/joyboy/Desktop/Sempiterno/Capacitacion/Flutter/sesion 4/sesion4/build/image_picker_android/intermediates/merged_manifest/debug/AndroidManifest.xml:11:13-82
meta-data#android.support.FILE_PROVIDER_PATHS
ADDED from [:image_picker_android] /Users/joyboy/Desktop/Sempiterno/Capacitacion/Flutter/sesion 4/sesion4/build/image_picker_android/intermediates/merged_manifest/debug/AndroidManifest.xml:15:13-17:75
	android:resource
		ADDED from [:image_picker_android] /Users/joyboy/Desktop/Sempiterno/Capacitacion/Flutter/sesion 4/sesion4/build/image_picker_android/intermediates/merged_manifest/debug/AndroidManifest.xml:17:17-72
	android:name
		ADDED from [:image_picker_android] /Users/joyboy/Desktop/Sempiterno/Capacitacion/Flutter/sesion 4/sesion4/build/image_picker_android/intermediates/merged_manifest/debug/AndroidManifest.xml:16:17-67
uses-permission#android.permission.FOREGROUND_SERVICE
ADDED from [:geolocator_android] /Users/joyboy/Desktop/Sempiterno/Capacitacion/Flutter/sesion 4/sesion4/build/geolocator_android/intermediates/merged_manifest/debug/AndroidManifest.xml:9:5-77
	android:name
		ADDED from [:geolocator_android] /Users/joyboy/Desktop/Sempiterno/Capacitacion/Flutter/sesion 4/sesion4/build/geolocator_android/intermediates/merged_manifest/debug/AndroidManifest.xml:9:22-74
service#com.baseflow.geolocator.GeolocatorLocationService
ADDED from [:geolocator_android] /Users/joyboy/Desktop/Sempiterno/Capacitacion/Flutter/sesion 4/sesion4/build/geolocator_android/intermediates/merged_manifest/debug/AndroidManifest.xml:12:9-16:56
	android:enabled
		ADDED from [:geolocator_android] /Users/joyboy/Desktop/Sempiterno/Capacitacion/Flutter/sesion 4/sesion4/build/geolocator_android/intermediates/merged_manifest/debug/AndroidManifest.xml:14:13-35
	android:exported
		ADDED from [:geolocator_android] /Users/joyboy/Desktop/Sempiterno/Capacitacion/Flutter/sesion 4/sesion4/build/geolocator_android/intermediates/merged_manifest/debug/AndroidManifest.xml:15:13-37
	android:foregroundServiceType
		ADDED from [:geolocator_android] /Users/joyboy/Desktop/Sempiterno/Capacitacion/Flutter/sesion 4/sesion4/build/geolocator_android/intermediates/merged_manifest/debug/AndroidManifest.xml:16:13-53
	android:name
		ADDED from [:geolocator_android] /Users/joyboy/Desktop/Sempiterno/Capacitacion/Flutter/sesion 4/sesion4/build/geolocator_android/intermediates/merged_manifest/debug/AndroidManifest.xml:13:13-77
uses-library#androidx.window.extensions
ADDED from [androidx.window:window:1.0.0-beta04] /Users/joyboy/.gradle/caches/transforms-3/36a45b2abb854eca36c578fbec6ed4df/transformed/jetified-window-1.0.0-beta04/AndroidManifest.xml:25:9-27:40
	android:required
		ADDED from [androidx.window:window:1.0.0-beta04] /Users/joyboy/.gradle/caches/transforms-3/36a45b2abb854eca36c578fbec6ed4df/transformed/jetified-window-1.0.0-beta04/AndroidManifest.xml:27:13-37
	android:name
		ADDED from [androidx.window:window:1.0.0-beta04] /Users/joyboy/.gradle/caches/transforms-3/36a45b2abb854eca36c578fbec6ed4df/transformed/jetified-window-1.0.0-beta04/AndroidManifest.xml:26:13-54
uses-library#androidx.window.sidecar
ADDED from [androidx.window:window:1.0.0-beta04] /Users/joyboy/.gradle/caches/transforms-3/36a45b2abb854eca36c578fbec6ed4df/transformed/jetified-window-1.0.0-beta04/AndroidManifest.xml:28:9-30:40
	android:required
		ADDED from [androidx.window:window:1.0.0-beta04] /Users/joyboy/.gradle/caches/transforms-3/36a45b2abb854eca36c578fbec6ed4df/transformed/jetified-window-1.0.0-beta04/AndroidManifest.xml:30:13-37
	android:name
		ADDED from [androidx.window:window:1.0.0-beta04] /Users/joyboy/.gradle/caches/transforms-3/36a45b2abb854eca36c578fbec6ed4df/transformed/jetified-window-1.0.0-beta04/AndroidManifest.xml:29:13-51
uses-permission#android.permission.ACCESS_NETWORK_STATE
ADDED from [com.google.firebase:firebase-firestore:24.4.2] /Users/joyboy/.gradle/caches/transforms-3/499e10e5f3f8cb73e54279727e058317/transformed/jetified-firebase-firestore-24.4.2/AndroidManifest.xml:12:5-79
MERGED from [com.google.firebase:firebase-database:20.1.0] /Users/joyboy/.gradle/caches/transforms-3/7d4f7974990a5d598544643415bc8124/transformed/jetified-firebase-database-20.1.0/AndroidManifest.xml:24:5-79
MERGED from [com.google.firebase:firebase-database:20.1.0] /Users/joyboy/.gradle/caches/transforms-3/7d4f7974990a5d598544643415bc8124/transformed/jetified-firebase-database-20.1.0/AndroidManifest.xml:24:5-79
MERGED from [io.grpc:grpc-android:1.50.2] /Users/joyboy/.gradle/caches/transforms-3/1d9b4dd3b63ff8730ebec3f2f4290d0a/transformed/jetified-grpc-android-1.50.2/AndroidManifest.xml:9:5-79
MERGED from [io.grpc:grpc-android:1.50.2] /Users/joyboy/.gradle/caches/transforms-3/1d9b4dd3b63ff8730ebec3f2f4290d0a/transformed/jetified-grpc-android-1.50.2/AndroidManifest.xml:9:5-79
	android:name
		ADDED from [com.google.firebase:firebase-firestore:24.4.2] /Users/joyboy/.gradle/caches/transforms-3/499e10e5f3f8cb73e54279727e058317/transformed/jetified-firebase-firestore-24.4.2/AndroidManifest.xml:12:22-76
meta-data#com.google.firebase.components:com.google.firebase.firestore.FirestoreRegistrar
ADDED from [com.google.firebase:firebase-firestore:24.4.2] /Users/joyboy/.gradle/caches/transforms-3/499e10e5f3f8cb73e54279727e058317/transformed/jetified-firebase-firestore-24.4.2/AndroidManifest.xml:19:13-21:85
	android:value
		ADDED from [com.google.firebase:firebase-firestore:24.4.2] /Users/joyboy/.gradle/caches/transforms-3/499e10e5f3f8cb73e54279727e058317/transformed/jetified-firebase-firestore-24.4.2/AndroidManifest.xml:21:17-82
	android:name
		ADDED from [com.google.firebase:firebase-firestore:24.4.2] /Users/joyboy/.gradle/caches/transforms-3/499e10e5f3f8cb73e54279727e058317/transformed/jetified-firebase-firestore-24.4.2/AndroidManifest.xml:20:17-111
meta-data#com.google.firebase.components:com.google.firebase.database.DatabaseRegistrar
ADDED from [com.google.firebase:firebase-database:20.1.0] /Users/joyboy/.gradle/caches/transforms-3/7d4f7974990a5d598544643415bc8124/transformed/jetified-firebase-database-20.1.0/AndroidManifest.xml:31:13-33:85
	android:value
		ADDED from [com.google.firebase:firebase-database:20.1.0] /Users/joyboy/.gradle/caches/transforms-3/7d4f7974990a5d598544643415bc8124/transformed/jetified-firebase-database-20.1.0/AndroidManifest.xml:33:17-82
	android:name
		ADDED from [com.google.firebase:firebase-database:20.1.0] /Users/joyboy/.gradle/caches/transforms-3/7d4f7974990a5d598544643415bc8124/transformed/jetified-firebase-database-20.1.0/AndroidManifest.xml:32:17-109
provider#com.google.firebase.provider.FirebaseInitProvider
ADDED from [com.google.firebase:firebase-common:20.3.0] /Users/joyboy/.gradle/caches/transforms-3/17f61bb9398e1f5c13b56fc5aeeddc14/transformed/jetified-firebase-common-20.3.0/AndroidManifest.xml:25:9-30:39
	android:authorities
		ADDED from [com.google.firebase:firebase-common:20.3.0] /Users/joyboy/.gradle/caches/transforms-3/17f61bb9398e1f5c13b56fc5aeeddc14/transformed/jetified-firebase-common-20.3.0/AndroidManifest.xml:27:13-72
	android:exported
		ADDED from [com.google.firebase:firebase-common:20.3.0] /Users/joyboy/.gradle/caches/transforms-3/17f61bb9398e1f5c13b56fc5aeeddc14/transformed/jetified-firebase-common-20.3.0/AndroidManifest.xml:29:13-37
	android:directBootAware
		ADDED from [com.google.firebase:firebase-common:20.3.0] /Users/joyboy/.gradle/caches/transforms-3/17f61bb9398e1f5c13b56fc5aeeddc14/transformed/jetified-firebase-common-20.3.0/AndroidManifest.xml:28:13-43
	android:initOrder
		ADDED from [com.google.firebase:firebase-common:20.3.0] /Users/joyboy/.gradle/caches/transforms-3/17f61bb9398e1f5c13b56fc5aeeddc14/transformed/jetified-firebase-common-20.3.0/AndroidManifest.xml:30:13-36
	android:name
		ADDED from [com.google.firebase:firebase-common:20.3.0] /Users/joyboy/.gradle/caches/transforms-3/17f61bb9398e1f5c13b56fc5aeeddc14/transformed/jetified-firebase-common-20.3.0/AndroidManifest.xml:26:13-77
activity#com.google.android.gms.common.api.GoogleApiActivity
ADDED from [com.google.android.gms:play-services-base:18.1.0] /Users/joyboy/.gradle/caches/transforms-3/0861465e27f550a84b471cca91b81f1b/transformed/jetified-play-services-base-18.1.0/AndroidManifest.xml:20:9-22:45
	android:exported
		ADDED from [com.google.android.gms:play-services-base:18.1.0] /Users/joyboy/.gradle/caches/transforms-3/0861465e27f550a84b471cca91b81f1b/transformed/jetified-play-services-base-18.1.0/AndroidManifest.xml:22:19-43
	android:theme
		ADDED from [com.google.android.gms:play-services-base:18.1.0] /Users/joyboy/.gradle/caches/transforms-3/0861465e27f550a84b471cca91b81f1b/transformed/jetified-play-services-base-18.1.0/AndroidManifest.xml:21:19-78
	android:name
		ADDED from [com.google.android.gms:play-services-base:18.1.0] /Users/joyboy/.gradle/caches/transforms-3/0861465e27f550a84b471cca91b81f1b/transformed/jetified-play-services-base-18.1.0/AndroidManifest.xml:20:19-85
meta-data#com.google.android.gms.version
ADDED from [com.google.android.gms:play-services-basement:18.1.0] /Users/joyboy/.gradle/caches/transforms-3/4c5cefc4bced38f73a0cc4404fde07b9/transformed/jetified-play-services-basement-18.1.0/AndroidManifest.xml:21:9-23:69
	android:value
		ADDED from [com.google.android.gms:play-services-basement:18.1.0] /Users/joyboy/.gradle/caches/transforms-3/4c5cefc4bced38f73a0cc4404fde07b9/transformed/jetified-play-services-basement-18.1.0/AndroidManifest.xml:23:13-66
	android:name
		ADDED from [com.google.android.gms:play-services-basement:18.1.0] /Users/joyboy/.gradle/caches/transforms-3/4c5cefc4bced38f73a0cc4404fde07b9/transformed/jetified-play-services-basement-18.1.0/AndroidManifest.xml:22:13-58
permission#${applicationId}.DYNAMIC_RECEIVER_NOT_EXPORTED_PERMISSION
ADDED from [androidx.core:core:1.9.0] /Users/joyboy/.gradle/caches/transforms-3/50ac565c2d78ece85381646878fcb457/transformed/core-1.9.0/AndroidManifest.xml:22:5-24:47
	android:protectionLevel
		ADDED from [androidx.core:core:1.9.0] /Users/joyboy/.gradle/caches/transforms-3/50ac565c2d78ece85381646878fcb457/transformed/core-1.9.0/AndroidManifest.xml:24:9-44
	android:name
		ADDED from [androidx.core:core:1.9.0] /Users/joyboy/.gradle/caches/transforms-3/50ac565c2d78ece85381646878fcb457/transformed/core-1.9.0/AndroidManifest.xml:23:9-81
permission#com.example.sesion4.DYNAMIC_RECEIVER_NOT_EXPORTED_PERMISSION
ADDED from [androidx.core:core:1.9.0] /Users/joyboy/.gradle/caches/transforms-3/50ac565c2d78ece85381646878fcb457/transformed/core-1.9.0/AndroidManifest.xml:22:5-24:47
	android:protectionLevel
		ADDED from [androidx.core:core:1.9.0] /Users/joyboy/.gradle/caches/transforms-3/50ac565c2d78ece85381646878fcb457/transformed/core-1.9.0/AndroidManifest.xml:24:9-44
	android:name
		ADDED from [androidx.core:core:1.9.0] /Users/joyboy/.gradle/caches/transforms-3/50ac565c2d78ece85381646878fcb457/transformed/core-1.9.0/AndroidManifest.xml:23:9-81
uses-permission#${applicationId}.DYNAMIC_RECEIVER_NOT_EXPORTED_PERMISSION
ADDED from [androidx.core:core:1.9.0] /Users/joyboy/.gradle/caches/transforms-3/50ac565c2d78ece85381646878fcb457/transformed/core-1.9.0/AndroidManifest.xml:26:5-97
	android:name
		ADDED from [androidx.core:core:1.9.0] /Users/joyboy/.gradle/caches/transforms-3/50ac565c2d78ece85381646878fcb457/transformed/core-1.9.0/AndroidManifest.xml:26:22-94
uses-permission#com.example.sesion4.DYNAMIC_RECEIVER_NOT_EXPORTED_PERMISSION
ADDED from [androidx.core:core:1.9.0] /Users/joyboy/.gradle/caches/transforms-3/50ac565c2d78ece85381646878fcb457/transformed/core-1.9.0/AndroidManifest.xml:26:5-97
	android:name
		ADDED from [androidx.core:core:1.9.0] /Users/joyboy/.gradle/caches/transforms-3/50ac565c2d78ece85381646878fcb457/transformed/core-1.9.0/AndroidManifest.xml:26:22-94
